1 ) = [0.17220172201722017, 0.17220172201722017]
2 ) } [0.09594095940959409, 0.09594095940959409]
3 ) { [0.08856088560885608, 0.08856088560885608]
4 ) output [0.08610086100861009, 0.08610086100861009]
5 ) + [0.08610086100861009, 0.08610086100861009]
6 ) " [0.039360393603936034, 0.039360393603936034]
7 ) int [0.03690036900369004, 0.03690036900369004]
8 ) if [0.03444034440344403, 0.03444034440344403]
9 ) private [0.03198031980319803, 0.03198031980319803]
10 ) number [0.029520295202952025, 0.029520295202952025]
11 ) 0) [0.024600246002460024, 0.024600246002460024]
12 ) unique [0.02214022140221402, 0.02214022140221402]
13 ) > [0.02214022140221402, 0.02214022140221402]
14 ) void [0.019680196801968017, 0.019680196801968017]
15 ) String [0.019680196801968017, 0.019680196801968017]