1 ) int [0.03690036900369004, 0.03424657534246575]
2 ) if [0.03444034440344403, 0.0319634703196347]
3 ) private [0.03198031980319803, 0.02968036529680365]
4 ) number [0.029520295202952025, 0.0319634703196347]
5 ) void [0.019680196801968017, 0.0182648401826484]
6 ) String [0.019680196801968017, 0.0182648401826484]
7 ) for [0.019680196801968017, 0.0182648401826484]
8 ) new [0.017220172201722016, 0.01598173515981735]
9 ) loop [0.014760147601476013, 0.0136986301369863]
10 ) (num [0.012300123001230012, 0.01141552511415525]
11 ) while [0.012300123001230012, 0.01141552511415525]
12 ) your [0.009840098400984008, 0.0136986301369863]
13 ) \n"; [0.009840098400984008, 0.01141552511415525]
14 ) import [0.009840098400984008, 0.0091324200913242]
15 ) final [0.009840098400984008, 0.0091324200913242]