1 ) outputString [0.08610086100861009, 0.08045977011494253]
2 ) int [0.03690036900369004, 0.034482758620689655]
3 ) if [0.03444034440344403, 0.03218390804597701]
4 ) private [0.03198031980319803, 0.029885057471264367]
5 ) number [0.029520295202952025, 0.029885057471264367]
6 ) void [0.019680196801968017, 0.01839080459770115]
7 ) String [0.019680196801968017, 0.01839080459770115]
8 ) for [0.019680196801968017, 0.01839080459770115]
9 ) new [0.017220172201722016, 0.016091954022988506]
10 ) loop [0.014760147601476013, 0.013793103448275862]
11 ) (num [0.012300123001230012, 0.011494252873563218]
12 ) while [0.012300123001230012, 0.011494252873563218]
13 ) your [0.009840098400984008, 0.013793103448275862]
14 ) import [0.009840098400984008, 0.009195402298850575]
15 ) final [0.009840098400984008, 0.009195402298850575]
